[
  {
    "name": "org.parboiled/parboiled-scala",
    "version": "1.3.1"
  },
  {
    "name": "org.parboiled/parboiled-core",
    "version": "1.3.1"
  },
  {
    "name": "io.spray/spray-json",
    "version": "1.3.5"
  },
  {
    "name": "org.scala-lang/scala-library",
    "version": "2.13.0"
  }
]