{
  "bomFormat": "CycloneDX",
  "specVersion": "1.4",
  "serialNumber": "urn:uuid:fd95b1a3-7e23-42d0-afbe-5545de29eda8",
  "version": 1,
  "metadata": {
    "timestamp": "2022-02-03T05:05:57.530Z",
    "tools": [
      {
        "vendor": "AppThreat",
        "name": "cdxgen",
        "version": "4.0.1"
      }
    ],
    "authors": [
      {
        "name": "Team AppThreat",
        "email": "cloud@appthreat.com"
      }
    ]
  },
  "components": [
    {
      "group": "github.com/pmezard",
      "name": "go-difflib",
      "version": "v1.0.0",
      "description": "",
      "hashes": [
        {
          "alg": "SHA-256",
          "content": "88a1fbee4a05858c532b5a5c46790a92a7d3a20b1b83b819355638b110d867fe"
        }
      ],
      "licenses": [],
      "purl": "pkg:golang/github.com/pmezard/go-difflib@v1.0.0",
      "type": "library",
      "bom-ref": "pkg:golang/github.com/pmezard/go-difflib@v1.0.0"
    }
  ],
  "externalReferences": [
    {
      "type": "other",
      "url": ".",
      "comment": "Base path"
    },
    {
      "type": "other",
      "url": "/src/go/go.sum",
      "comment": "Package file"
    }
  ]
}