{
  "bomFormat": "CycloneDX",
  "specVersion": "1.4",
  "serialNumber": "urn:uuid:c4793baa-16fd-4784-a737-358efe00c808",
  "version": 1,
  "metadata": {
    "timestamp": "2022-02-23T08:01:28Z",
    "tools": [
      {
        "vendor": "GitLab",
        "name": "Gemnasium",
        "version": "2.34.0"
      }
    ],
    "authors": [
      {
        "name": "GitLab",
        "email": "support@gitlab.com"
      }
    ],
    "properties": [
      {
        "name": "gitlab:dependency_scanning:input_file",
        "value": "go.sum"
      },
      {
        "name": "gitlab:dependency_scanning:package_manager",
        "value": "go"
      }
    ]
  },
  "components": [
    {
      "name": "github.com/astaxie/beego",
      "version": "v1.10.0",
      "purl": "pkg:golang/github.com/astaxie/beego@v1.10.0",
      "type": "library",
      "bom-ref": "pkg:golang/github.com/astaxie/beego@v1.10.0"
    },
    {
      "name": "github.com/davecgh/go-spew",
      "version": "v1.1.1",
      "purl": "pkg:golang/github.com/davecgh/go-spew@v1.1.1",
      "type": "library",
      "bom-ref": "pkg:golang/github.com/davecgh/go-spew@v1.1.1"
    },
    {
      "name": "github.com/konsorten/go-windows-terminal-sequences",
      "version": "v1.0.1",
      "purl": "pkg:golang/github.com/konsorten/go-windows-terminal-sequences@v1.0.1",
      "type": "library",
      "bom-ref": "pkg:golang/github.com/konsorten/go-windows-terminal-sequences@v1.0.1"
    },
    {
      "name": "github.com/minio/minio",
      "version": "v0.0.0-20180419184637-5a16671f721f",
      "purl": "pkg:golang/github.com/minio/minio@v0.0.0-20180419184637-5a16671f721f",
      "type": "library",
      "bom-ref": "pkg:golang/github.com/minio/minio@v0.0.0-20180419184637-5a16671f721f"
    },
    {
      "name": "github.com/minio/minio-go",
      "version": "v6.0.14",
      "purl": "pkg:golang/github.com/minio/minio-go@v6.0.14",
      "type": "library",
      "bom-ref": "pkg:golang/github.com/minio/minio-go@v6.0.14"
    },
    {
      "name": "github.com/minio/sha256-simd",
      "version": "v0.1.1",
      "purl": "pkg:golang/github.com/minio/sha256-simd@v0.1.1",
      "type": "library",
      "bom-ref": "pkg:golang/github.com/minio/sha256-simd@v0.1.1"
    },
    {
      "name": "github.com/pmezard/go-difflib",
      "version": "v1.0.0",
      "purl": "pkg:golang/github.com/pmezard/go-difflib@v1.0.0",
      "type": "library",
      "bom-ref": "pkg:golang/github.com/pmezard/go-difflib@v1.0.0"
    },
    {
      "name": "github.com/sirupsen/logrus",
      "version": "v1.4.2",
      "purl": "pkg:golang/github.com/sirupsen/logrus@v1.4.2",
      "type": "library",
      "bom-ref": "pkg:golang/github.com/sirupsen/logrus@v1.4.2"
    },
    {
      "name": "github.com/stretchr/objx",
      "version": "v0.1.1",
      "purl": "pkg:golang/github.com/stretchr/objx@v0.1.1",
      "type": "library",
      "bom-ref": "pkg:golang/github.com/stretchr/objx@v0.1.1"
    },
    {
      "name": "github.com/stretchr/testify",
      "version": "v1.2.2",
      "purl": "pkg:golang/github.com/stretchr/testify@v1.2.2",
      "type": "library",
      "bom-ref": "pkg:golang/github.com/stretchr/testify@v1.2.2"
    },
    {
      "name": "golang.org/x/sys",
      "version": "v0.0.0-20190422165155-953cdadca894",
      "purl": "pkg:golang/golang.org/x/sys@v0.0.0-20190422165155-953cdadca894",
      "type": "library",
      "bom-ref": "pkg:golang/golang.org/x/sys@v0.0.0-20190422165155-953cdadca894"
    },
    {
      "name": "golang.org/x/sys",
      "version": "v0.0.0-20191026070338-33540a1f6037",
      "purl": "pkg:golang/golang.org/x/sys@v0.0.0-20191026070338-33540a1f6037",
      "type": "library",
      "bom-ref": "pkg:golang/golang.org/x/sys@v0.0.0-20191026070338-33540a1f6037"
    },
    {
      "name": "gopkg.in/check.v1",
      "version": "v0.0.0-20161208181325-20d25e280405",
      "purl": "pkg:golang/gopkg.in/check.v1@v0.0.0-20161208181325-20d25e280405",
      "type": "library",
      "bom-ref": "pkg:golang/gopkg.in/check.v1@v0.0.0-20161208181325-20d25e280405"
    },
    {
      "name": "gopkg.in/fake-package",
      "version": "v0.0.0-20161208181325-20d25e280405",
      "purl": "pkg:golang/gopkg.in/fake-package@v0.0.0-20161208181325-20d25e280405",
      "type": "library",
      "bom-ref": "pkg:golang/gopkg.in/fake-package@v0.0.0-20161208181325-20d25e280405"
    },
    {
      "name": "gopkg.in/yaml.v2",
      "version": "v2.2.2",
      "purl": "pkg:golang/gopkg.in/yaml.v2@v2.2.2",
      "type": "library",
      "bom-ref": "pkg:golang/gopkg.in/yaml.v2@v2.2.2"
    }
  ]
}
