{
  "bomFormat": "CycloneDX",
  "specVersion": "1.4",
  "serialNumber": "urn:uuid:9cf9df03-69e0-44ee-a325-5c2c668dfac9",
  "version": 1,
  "metadata": {
    "timestamp": "2022-03-04T01:50:52Z",
    "tools": [
      {
        "vendor": "GitLab",
        "name": "Gemnasium",
        "version": "not-configured"
      }
    ],
    "authors": [
      {
        "name": "GitLab",
        "email": "support@gitlab.com"
      }
    ],
    "properties": [
      {
        "name": "gitlab:dependency_scanning:input_file",
        "value": "setup.py"
      },
      {
        "name": "gitlab:dependency_scanning:package_manager",
        "value": "setuptools"
      }
    ]
  },
  "components": [
    {
      "name": "Django",
      "version": "1.11.3",
      "purl": "pkg:pypi/Django@1.11.3",
      "type": "library",
      "bom-ref": "pkg:pypi/Django@1.11.3"
    },
    {
      "name": "docutils",
      "version": "0.13.1",
      "purl": "pkg:pypi/docutils@0.13.1",
      "type": "library",
      "bom-ref": "pkg:pypi/docutils@0.13.1"
    },
    {
      "name": "pytz",
      "version": ":SKIP:",
      "purl": ":SKIP:",
      "type": "library",
      "bom-ref": ":SKIP:"
    },
    {
      "name": "requests",
      "version": "2.5.3",
      "purl": "pkg:pypi/requests@2.5.3",
      "type": "library",
      "bom-ref": "pkg:pypi/requests@2.5.3"
    },
    {
      "name": "test-project",
      "version": "0.0.1",
      "purl": "pkg:pypi/test-project@0.0.1",
      "type": "library",
      "bom-ref": "pkg:pypi/test-project@0.0.1"
    }
  ]
}
